\relax 
\newlabel{list:first}{{1}{1}}
\@writefile{lol}{\contentsline {lstlisting}{\numberline {1}Sample Python code -- Fibonacci sequence calculated analytically.}{1}\protected@file@percent }
\newlabel{list:second}{{2}{1}}
\@writefile{lol}{\contentsline {lstlisting}{\numberline {2}Sample Bash code.}{1}\protected@file@percent }
